adder/adder.sim/sim_1/behav/xsim/simulate.log
Time resolution is 1 ps
Time	 a  b   s | sum carry
0	 0000  0000  0 | 0000 0
10000	 0000  0000  1 | 0000 1
20000	 0000  0001  0 | 0001 0
30000	 0000  0001  1 | 1111 0
40000	 0000  0010  0 | 0010 0
50000	 0000  0010  1 | 1110 0
60000	 0000  0011  0 | 0011 0
70000	 0000  0011  1 | 1101 0
80000	 0000  0100  0 | 0100 0
90000	 0000  0100  1 | 1100 0
100000	 0000  0101  0 | 0101 0
110000	 0000  0101  1 | 1011 0
120000	 0000  0110  0 | 0110 0
130000	 0000  0110  1 | 1010 0
140000	 0000  0111  0 | 0111 0
150000	 0000  0111  1 | 1001 0
160000	 0000  1000  0 | 1000 0
170000	 0000  1000  1 | 1000 0
180000	 0000  1001  0 | 1001 0
190000	 0000  1001  1 | 0111 0
200000	 0000  1010  0 | 1010 0
210000	 0000  1010  1 | 0110 0
220000	 0000  1011  0 | 1011 0
230000	 0000  1011  1 | 0101 0
240000	 0000  1100  0 | 1100 0
250000	 0000  1100  1 | 0100 0
260000	 0000  1101  0 | 1101 0
270000	 0000  1101  1 | 0011 0
280000	 0000  1110  0 | 1110 0
290000	 0000  1110  1 | 0010 0
300000	 0000  1111  0 | 1111 0
310000	 0000  1111  1 | 0001 0
320000	 0001  0000  0 | 0001 0
330000	 0001  0000  1 | 0001 1
340000	 0001  0001  0 | 0010 0
350000	 0001  0001  1 | 0000 1
360000	 0001  0010  0 | 0011 0
370000	 0001  0010  1 | 1111 0
380000	 0001  0011  0 | 0100 0
390000	 0001  0011  1 | 1110 0
400000	 0001  0100  0 | 0101 0
410000	 0001  0100  1 | 1101 0
420000	 0001  0101  0 | 0110 0
430000	 0001  0101  1 | 1100 0
440000	 0001  0110  0 | 0111 0
450000	 0001  0110  1 | 1011 0
460000	 0001  0111  0 | 1000 0
470000	 0001  0111  1 | 1010 0
480000	 0001  1000  0 | 1001 0
490000	 0001  1000  1 | 1001 0
500000	 0001  1001  0 | 1010 0
510000	 0001  1001  1 | 1000 0
520000	 0001  1010  0 | 1011 0
530000	 0001  1010  1 | 0111 0
540000	 0001  1011  0 | 1100 0
550000	 0001  1011  1 | 0110 0
560000	 0001  1100  0 | 1101 0
570000	 0001  1100  1 | 0101 0
580000	 0001  1101  0 | 1110 0
590000	 0001  1101  1 | 0100 0
600000	 0001  1110  0 | 1111 0
610000	 0001  1110  1 | 0011 0
620000	 0001  1111  0 | 0000 1
630000	 0001  1111  1 | 0010 0
640000	 0010  0000  0 | 0010 0
650000	 0010  0000  1 | 0010 1
660000	 0010  0001  0 | 0011 0
670000	 0010  0001  1 | 0001 1
680000	 0010  0010  0 | 0100 0
690000	 0010  0010  1 | 0000 1
700000	 0010  0011  0 | 0101 0
710000	 0010  0011  1 | 1111 0
720000	 0010  0100  0 | 0110 0
730000	 0010  0100  1 | 1110 0
740000	 0010  0101  0 | 0111 0
750000	 0010  0101  1 | 1101 0
760000	 0010  0110  0 | 1000 0
770000	 0010  0110  1 | 1100 0
780000	 0010  0111  0 | 1001 0
790000	 0010  0111  1 | 1011 0
800000	 0010  1000  0 | 1010 0
810000	 0010  1000  1 | 1010 0
820000	 0010  1001  0 | 1011 0
830000	 0010  1001  1 | 1001 0
840000	 0010  1010  0 | 1100 0
850000	 0010  1010  1 | 1000 0
860000	 0010  1011  0 | 1101 0
870000	 0010  1011  1 | 0111 0
880000	 0010  1100  0 | 1110 0
890000	 0010  1100  1 | 0110 0
900000	 0010  1101  0 | 1111 0
910000	 0010  1101  1 | 0101 0
920000	 0010  1110  0 | 0000 1
930000	 0010  1110  1 | 0100 0
940000	 0010  1111  0 | 0001 1
950000	 0010  1111  1 | 0011 0
960000	 0011  0000  0 | 0011 0
970000	 0011  0000  1 | 0011 1
980000	 0011  0001  0 | 0100 0
990000	 0011  0001  1 | 0010 1
1000000	 0011  0010  0 | 0101 0
1010000	 0011  0010  1 | 0001 1
1020000	 0011  0011  0 | 0110 0
1030000	 0011  0011  1 | 0000 1
1040000	 0011  0100  0 | 0111 0
1050000	 0011  0100  1 | 1111 0
1060000	 0011  0101  0 | 1000 0
1070000	 0011  0101  1 | 1110 0
1080000	 0011  0110  0 | 1001 0
1090000	 0011  0110  1 | 1101 0
1100000	 0011  0111  0 | 1010 0
1110000	 0011  0111  1 | 1100 0
1120000	 0011  1000  0 | 1011 0
1130000	 0011  1000  1 | 1011 0
1140000	 0011  1001  0 | 1100 0
1150000	 0011  1001  1 | 1010 0
1160000	 0011  1010  0 | 1101 0
1170000	 0011  1010  1 | 1001 0
1180000	 0011  1011  0 | 1110 0
1190000	 0011  1011  1 | 1000 0
1200000	 0011  1100  0 | 1111 0
1210000	 0011  1100  1 | 0111 0
1220000	 0011  1101  0 | 0000 1
1230000	 0011  1101  1 | 0110 0
1240000	 0011  1110  0 | 0001 1
1250000	 0011  1110  1 | 0101 0
1260000	 0011  1111  0 | 0010 1
1270000	 0011  1111  1 | 0100 0
1280000	 0100  0000  0 | 0100 0
1290000	 0100  0000  1 | 0100 1
1300000	 0100  0001  0 | 0101 0
1310000	 0100  0001  1 | 0011 1
1320000	 0100  0010  0 | 0110 0
1330000	 0100  0010  1 | 0010 1
1340000	 0100  0011  0 | 0111 0
1350000	 0100  0011  1 | 0001 1
1360000	 0100  0100  0 | 1000 0
1370000	 0100  0100  1 | 0000 1
1380000	 0100  0101  0 | 1001 0
1390000	 0100  0101  1 | 1111 0
1400000	 0100  0110  0 | 1010 0
1410000	 0100  0110  1 | 1110 0
1420000	 0100  0111  0 | 1011 0
1430000	 0100  0111  1 | 1101 0
1440000	 0100  1000  0 | 1100 0
1450000	 0100  1000  1 | 1100 0
1460000	 0100  1001  0 | 1101 0
1470000	 0100  1001  1 | 1011 0
1480000	 0100  1010  0 | 1110 0
1490000	 0100  1010  1 | 1010 0
1500000	 0100  1011  0 | 1111 0
1510000	 0100  1011  1 | 1001 0
1520000	 0100  1100  0 | 0000 1
1530000	 0100  1100  1 | 1000 0
1540000	 0100  1101  0 | 0001 1
1550000	 0100  1101  1 | 0111 0
1560000	 0100  1110  0 | 0010 1
1570000	 0100  1110  1 | 0110 0
1580000	 0100  1111  0 | 0011 1
1590000	 0100  1111  1 | 0101 0
1600000	 0101  0000  0 | 0101 0
1610000	 0101  0000  1 | 0101 1
1620000	 0101  0001  0 | 0110 0
1630000	 0101  0001  1 | 0100 1
1640000	 0101  0010  0 | 0111 0
1650000	 0101  0010  1 | 0011 1
1660000	 0101  0011  0 | 1000 0
1670000	 0101  0011  1 | 0010 1
1680000	 0101  0100  0 | 1001 0
1690000	 0101  0100  1 | 0001 1
1700000	 0101  0101  0 | 1010 0
1710000	 0101  0101  1 | 0000 1
1720000	 0101  0110  0 | 1011 0
1730000	 0101  0110  1 | 1111 0
1740000	 0101  0111  0 | 1100 0
1750000	 0101  0111  1 | 1110 0
1760000	 0101  1000  0 | 1101 0
1770000	 0101  1000  1 | 1101 0
1780000	 0101  1001  0 | 1110 0
1790000	 0101  1001  1 | 1100 0
1800000	 0101  1010  0 | 1111 0
1810000	 0101  1010  1 | 1011 0
1820000	 0101  1011  0 | 0000 1
1830000	 0101  1011  1 | 1010 0
1840000	 0101  1100  0 | 0001 1
1850000	 0101  1100  1 | 1001 0
1860000	 0101  1101  0 | 0010 1
1870000	 0101  1101  1 | 1000 0
1880000	 0101  1110  0 | 0011 1
1890000	 0101  1110  1 | 0111 0
1900000	 0101  1111  0 | 0100 1
1910000	 0101  1111  1 | 0110 0
1920000	 0110  0000  0 | 0110 0
1930000	 0110  0000  1 | 0110 1
1940000	 0110  0001  0 | 0111 0
1950000	 0110  0001  1 | 0101 1
1960000	 0110  0010  0 | 1000 0
1970000	 0110  0010  1 | 0100 1
1980000	 0110  0011  0 | 1001 0
1990000	 0110  0011  1 | 0011 1
2000000	 0110  0100  0 | 1010 0
2010000	 0110  0100  1 | 0010 1
2020000	 0110  0101  0 | 1011 0
2030000	 0110  0101  1 | 0001 1
2040000	 0110  0110  0 | 1100 0
2050000	 0110  0110  1 | 0000 1
2060000	 0110  0111  0 | 1101 0
2070000	 0110  0111  1 | 1111 0
2080000	 0110  1000  0 | 1110 0
2090000	 0110  1000  1 | 1110 0
2100000	 0110  1001  0 | 1111 0
2110000	 0110  1001  1 | 1101 0
2120000	 0110  1010  0 | 0000 1
2130000	 0110  1010  1 | 1100 0
2140000	 0110  1011  0 | 0001 1
2150000	 0110  1011  1 | 1011 0
2160000	 0110  1100  0 | 0010 1
2170000	 0110  1100  1 | 1010 0
2180000	 0110  1101  0 | 0011 1
2190000	 0110  1101  1 | 1001 0
2200000	 0110  1110  0 | 0100 1
2210000	 0110  1110  1 | 1000 0
2220000	 0110  1111  0 | 0101 1
2230000	 0110  1111  1 | 0111 0
2240000	 0111  0000  0 | 0111 0
2250000	 0111  0000  1 | 0111 1
2260000	 0111  0001  0 | 1000 0
2270000	 0111  0001  1 | 0110 1
2280000	 0111  0010  0 | 1001 0
2290000	 0111  0010  1 | 0101 1
2300000	 0111  0011  0 | 1010 0
2310000	 0111  0011  1 | 0100 1
2320000	 0111  0100  0 | 1011 0
2330000	 0111  0100  1 | 0011 1
2340000	 0111  0101  0 | 1100 0
2350000	 0111  0101  1 | 0010 1
2360000	 0111  0110  0 | 1101 0
2370000	 0111  0110  1 | 0001 1
2380000	 0111  0111  0 | 1110 0
2390000	 0111  0111  1 | 0000 1
2400000	 0111  1000  0 | 1111 0
2410000	 0111  1000  1 | 1111 0
2420000	 0111  1001  0 | 0000 1
2430000	 0111  1001  1 | 1110 0
2440000	 0111  1010  0 | 0001 1
2450000	 0111  1010  1 | 1101 0
2460000	 0111  1011  0 | 0010 1
2470000	 0111  1011  1 | 1100 0
2480000	 0111  1100  0 | 0011 1
2490000	 0111  1100  1 | 1011 0
2500000	 0111  1101  0 | 0100 1
2510000	 0111  1101  1 | 1010 0
2520000	 0111  1110  0 | 0101 1
2530000	 0111  1110  1 | 1001 0
2540000	 0111  1111  0 | 0110 1
2550000	 0111  1111  1 | 1000 0
2560000	 1000  0000  0 | 1000 0
2570000	 1000  0000  1 | 1000 1
2580000	 1000  0001  0 | 1001 0
2590000	 1000  0001  1 | 0111 1
2600000	 1000  0010  0 | 1010 0
2610000	 1000  0010  1 | 0110 1
2620000	 1000  0011  0 | 1011 0
2630000	 1000  0011  1 | 0101 1
2640000	 1000  0100  0 | 1100 0
2650000	 1000  0100  1 | 0100 1
2660000	 1000  0101  0 | 1101 0
2670000	 1000  0101  1 | 0011 1
2680000	 1000  0110  0 | 1110 0
2690000	 1000  0110  1 | 0010 1
2700000	 1000  0111  0 | 1111 0
2710000	 1000  0111  1 | 0001 1
2720000	 1000  1000  0 | 0000 1
2730000	 1000  1000  1 | 0000 1
2740000	 1000  1001  0 | 0001 1
2750000	 1000  1001  1 | 1111 0
2760000	 1000  1010  0 | 0010 1
2770000	 1000  1010  1 | 1110 0
2780000	 1000  1011  0 | 0011 1
2790000	 1000  1011  1 | 1101 0
2800000	 1000  1100  0 | 0100 1
2810000	 1000  1100  1 | 1100 0
2820000	 1000  1101  0 | 0101 1
2830000	 1000  1101  1 | 1011 0
2840000	 1000  1110  0 | 0110 1
2850000	 1000  1110  1 | 1010 0
2860000	 1000  1111  0 | 0111 1
2870000	 1000  1111  1 | 1001 0
2880000	 1001  0000  0 | 1001 0
2890000	 1001  0000  1 | 1001 1
2900000	 1001  0001  0 | 1010 0
2910000	 1001  0001  1 | 1000 1
2920000	 1001  0010  0 | 1011 0
2930000	 1001  0010  1 | 0111 1
2940000	 1001  0011  0 | 1100 0
2950000	 1001  0011  1 | 0110 1
2960000	 1001  0100  0 | 1101 0
2970000	 1001  0100  1 | 0101 1
2980000	 1001  0101  0 | 1110 0
2990000	 1001  0101  1 | 0100 1
3000000	 1001  0110  0 | 1111 0
3010000	 1001  0110  1 | 0011 1
3020000	 1001  0111  0 | 0000 1
3030000	 1001  0111  1 | 0010 1
3040000	 1001  1000  0 | 0001 1
3050000	 1001  1000  1 | 0001 1
3060000	 1001  1001  0 | 0010 1
3070000	 1001  1001  1 | 0000 1
3080000	 1001  1010  0 | 0011 1
3090000	 1001  1010  1 | 1111 0
3100000	 1001  1011  0 | 0100 1
3110000	 1001  1011  1 | 1110 0
3120000	 1001  1100  0 | 0101 1
3130000	 1001  1100  1 | 1101 0
3140000	 1001  1101  0 | 0110 1
3150000	 1001  1101  1 | 1100 0
3160000	 1001  1110  0 | 0111 1
3170000	 1001  1110  1 | 1011 0
3180000	 1001  1111  0 | 1000 1
3190000	 1001  1111  1 | 1010 0
3200000	 1010  0000  0 | 1010 0
3210000	 1010  0000  1 | 1010 1
3220000	 1010  0001  0 | 1011 0
3230000	 1010  0001  1 | 1001 1
3240000	 1010  0010  0 | 1100 0
3250000	 1010  0010  1 | 1000 1
3260000	 1010  0011  0 | 1101 0
3270000	 1010  0011  1 | 0111 1
3280000	 1010  0100  0 | 1110 0
3290000	 1010  0100  1 | 0110 1
3300000	 1010  0101  0 | 1111 0
3310000	 1010  0101  1 | 0101 1
3320000	 1010  0110  0 | 0000 1
3330000	 1010  0110  1 | 0100 1
3340000	 1010  0111  0 | 0001 1
3350000	 1010  0111  1 | 0011 1
3360000	 1010  1000  0 | 0010 1
3370000	 1010  1000  1 | 0010 1
3380000	 1010  1001  0 | 0011 1
3390000	 1010  1001  1 | 0001 1
3400000	 1010  1010  0 | 0100 1
3410000	 1010  1010  1 | 0000 1
3420000	 1010  1011  0 | 0101 1
3430000	 1010  1011  1 | 1111 0
3440000	 1010  1100  0 | 0110 1
3450000	 1010  1100  1 | 1110 0
3460000	 1010  1101  0 | 0111 1
3470000	 1010  1101  1 | 1101 0
3480000	 1010  1110  0 | 1000 1
3490000	 1010  1110  1 | 1100 0
3500000	 1010  1111  0 | 1001 1
3510000	 1010  1111  1 | 1011 0
3520000	 1011  0000  0 | 1011 0
3530000	 1011  0000  1 | 1011 1
3540000	 1011  0001  0 | 1100 0
3550000	 1011  0001  1 | 1010 1
3560000	 1011  0010  0 | 1101 0
3570000	 1011  0010  1 | 1001 1
3580000	 1011  0011  0 | 1110 0
3590000	 1011  0011  1 | 1000 1
3600000	 1011  0100  0 | 1111 0
3610000	 1011  0100  1 | 0111 1
3620000	 1011  0101  0 | 0000 1
3630000	 1011  0101  1 | 0110 1
3640000	 1011  0110  0 | 0001 1
3650000	 1011  0110  1 | 0101 1
3660000	 1011  0111  0 | 0010 1
3670000	 1011  0111  1 | 0100 1
3680000	 1011  1000  0 | 0011 1
3690000	 1011  1000  1 | 0011 1
3700000	 1011  1001  0 | 0100 1
3710000	 1011  1001  1 | 0010 1
3720000	 1011  1010  0 | 0101 1
3730000	 1011  1010  1 | 0001 1
3740000	 1011  1011  0 | 0110 1
3750000	 1011  1011  1 | 0000 1
3760000	 1011  1100  0 | 0111 1
3770000	 1011  1100  1 | 1111 0
3780000	 1011  1101  0 | 1000 1
3790000	 1011  1101  1 | 1110 0
3800000	 1011  1110  0 | 1001 1
3810000	 1011  1110  1 | 1101 0
3820000	 1011  1111  0 | 1010 1
3830000	 1011  1111  1 | 1100 0
3840000	 1100  0000  0 | 1100 0
3850000	 1100  0000  1 | 1100 1
3860000	 1100  0001  0 | 1101 0
3870000	 1100  0001  1 | 1011 1
3880000	 1100  0010  0 | 1110 0
3890000	 1100  0010  1 | 1010 1
3900000	 1100  0011  0 | 1111 0
3910000	 1100  0011  1 | 1001 1
3920000	 1100  0100  0 | 0000 1
3930000	 1100  0100  1 | 1000 1
3940000	 1100  0101  0 | 0001 1
3950000	 1100  0101  1 | 0111 1
3960000	 1100  0110  0 | 0010 1
3970000	 1100  0110  1 | 0110 1
3980000	 1100  0111  0 | 0011 1
3990000	 1100  0111  1 | 0101 1
4000000	 1100  1000  0 | 0100 1
4010000	 1100  1000  1 | 0100 1
4020000	 1100  1001  0 | 0101 1
4030000	 1100  1001  1 | 0011 1
4040000	 1100  1010  0 | 0110 1
4050000	 1100  1010  1 | 0010 1
4060000	 1100  1011  0 | 0111 1
4070000	 1100  1011  1 | 0001 1
4080000	 1100  1100  0 | 1000 1
4090000	 1100  1100  1 | 0000 1
4100000	 1100  1101  0 | 1001 1
4110000	 1100  1101  1 | 1111 0
4120000	 1100  1110  0 | 1010 1
4130000	 1100  1110  1 | 1110 0
4140000	 1100  1111  0 | 1011 1
4150000	 1100  1111  1 | 1101 0
4160000	 1101  0000  0 | 1101 0
4170000	 1101  0000  1 | 1101 1
4180000	 1101  0001  0 | 1110 0
4190000	 1101  0001  1 | 1100 1
4200000	 1101  0010  0 | 1111 0
4210000	 1101  0010  1 | 1011 1
4220000	 1101  0011  0 | 0000 1
4230000	 1101  0011  1 | 1010 1
4240000	 1101  0100  0 | 0001 1
4250000	 1101  0100  1 | 1001 1
4260000	 1101  0101  0 | 0010 1
4270000	 1101  0101  1 | 1000 1
4280000	 1101  0110  0 | 0011 1
4290000	 1101  0110  1 | 0111 1
4300000	 1101  0111  0 | 0100 1
4310000	 1101  0111  1 | 0110 1
4320000	 1101  1000  0 | 0101 1
4330000	 1101  1000  1 | 0101 1
4340000	 1101  1001  0 | 0110 1
4350000	 1101  1001  1 | 0100 1
4360000	 1101  1010  0 | 0111 1
4370000	 1101  1010  1 | 0011 1
4380000	 1101  1011  0 | 1000 1
4390000	 1101  1011  1 | 0010 1
4400000	 1101  1100  0 | 1001 1
4410000	 1101  1100  1 | 0001 1
4420000	 1101  1101  0 | 1010 1
4430000	 1101  1101  1 | 0000 1
4440000	 1101  1110  0 | 1011 1
4450000	 1101  1110  1 | 1111 0
4460000	 1101  1111  0 | 1100 1
4470000	 1101  1111  1 | 1110 0
4480000	 1110  0000  0 | 1110 0
4490000	 1110  0000  1 | 1110 1
4500000	 1110  0001  0 | 1111 0
4510000	 1110  0001  1 | 1101 1
4520000	 1110  0010  0 | 0000 1
4530000	 1110  0010  1 | 1100 1
4540000	 1110  0011  0 | 0001 1
4550000	 1110  0011  1 | 1011 1
4560000	 1110  0100  0 | 0010 1
4570000	 1110  0100  1 | 1010 1
4580000	 1110  0101  0 | 0011 1
4590000	 1110  0101  1 | 1001 1
4600000	 1110  0110  0 | 0100 1
4610000	 1110  0110  1 | 1000 1
4620000	 1110  0111  0 | 0101 1
4630000	 1110  0111  1 | 0111 1
4640000	 1110  1000  0 | 0110 1
4650000	 1110  1000  1 | 0110 1
4660000	 1110  1001  0 | 0111 1
4670000	 1110  1001  1 | 0101 1
4680000	 1110  1010  0 | 1000 1
4690000	 1110  1010  1 | 0100 1
4700000	 1110  1011  0 | 1001 1
4710000	 1110  1011  1 | 0011 1
4720000	 1110  1100  0 | 1010 1
4730000	 1110  1100  1 | 0010 1
4740000	 1110  1101  0 | 1011 1
4750000	 1110  1101  1 | 0001 1
4760000	 1110  1110  0 | 1100 1
4770000	 1110  1110  1 | 0000 1
4780000	 1110  1111  0 | 1101 1
4790000	 1110  1111  1 | 1111 0
4800000	 1111  0000  0 | 1111 0
4810000	 1111  0000  1 | 1111 1
4820000	 1111  0001  0 | 0000 1
4830000	 1111  0001  1 | 1110 1
4840000	 1111  0010  0 | 0001 1
4850000	 1111  0010  1 | 1101 1
4860000	 1111  0011  0 | 0010 1
4870000	 1111  0011  1 | 1100 1
4880000	 1111  0100  0 | 0011 1
4890000	 1111  0100  1 | 1011 1
4900000	 1111  0101  0 | 0100 1
4910000	 1111  0101  1 | 1010 1
4920000	 1111  0110  0 | 0101 1
4930000	 1111  0110  1 | 1001 1
4940000	 1111  0111  0 | 0110 1
4950000	 1111  0111  1 | 1000 1
4960000	 1111  1000  0 | 0111 1
4970000	 1111  1000  1 | 0111 1
4980000	 1111  1001  0 | 1000 1
4990000	 1111  1001  1 | 0110 1
5000000	 1111  1010  0 | 1001 1
5010000	 1111  1010  1 | 0101 1
5020000	 1111  1011  0 | 1010 1
5030000	 1111  1011  1 | 0100 1
5040000	 1111  1100  0 | 1011 1
5050000	 1111  1100  1 | 0011 1
5060000	 1111  1101  0 | 1100 1
5070000	 1111  1101  1 | 0010 1
5080000	 1111  1110  0 | 1101 1
5090000	 1111  1110  1 | 0001 1
5100000	 1111  1111  0 | 1110 1
5110000	 1111  1111  1 | 0000 1
$finish called at time : 5120 ns : File "/home/psh/work/adder/adder.srcs/sim_1/new/tb_full_adder.v" Line 267
